2023-10-12/作業一/work1/work1_1012/simulation/qsim/work1.msim.vcd
$comment
	File created using the following command:
		vcd file work1.msim.vcd -direction
$end
$date
	Sat Oct 14 15:57:48 2023
$end
$version
	ModelSim Version 10.1d
$end
$timescale
	1ps
$end
$scope module work1_vlg_vec_tst $end
$var reg 1 ! clk_in $end
$var reg 1 " reset $end
$var wire 1 # clk_out $end
$scope module i1 $end
$var wire 1 $ gnd $end
$var wire 1 % vcc $end
$var wire 1 & unknown $end
$var tri1 1 ' devclrn $end
$var tri1 1 ( devpor $end
$var tri1 1 ) devoe $end
$var wire 1 * ~QUARTUS_CREATED_GND~I_combout $end
$var wire 1 + clk_in~input_o $end
$var wire 1 , clk_in~inputCLKENA0_outclk $end
$var wire 1 - Add0~5_sumout $end
$var wire 1 . reset~input_o $end
$var wire 1 / count[1]~DUPLICATE_q $end
$var wire 1 0 Add0~6 $end
$var wire 1 1 Add0~29_sumout $end
$var wire 1 2 count~2_combout $end
$var wire 1 3 Add0~30 $end
$var wire 1 4 Add0~2 $end
$var wire 1 5 Add0~25_sumout $end
$var wire 1 6 Add0~26 $end
$var wire 1 7 Add0~21_sumout $end
$var wire 1 8 Add0~22 $end
$var wire 1 9 Add0~17_sumout $end
$var wire 1 : Add0~18 $end
$var wire 1 ; Add0~13_sumout $end
$var wire 1 < Add0~14 $end
$var wire 1 = Add0~9_sumout $end
$var wire 1 > Equal0~0_combout $end
$var wire 1 ? count~1_combout $end
$var wire 1 @ Add0~1_sumout $end
$var wire 1 A count~0_combout $end
$var wire 1 B clk2~0_combout $end
$var wire 1 C clk2~q $end
$var wire 1 D clk1~0_combout $end
$var wire 1 E clk1~q $end
$var wire 1 F clk_out~0_combout $end
$var wire 1 G count [7] $end
$var wire 1 H count [6] $end
$var wire 1 I count [5] $end
$var wire 1 J count [4] $end
$var wire 1 K count [3] $end
$var wire 1 L count [2] $end
$var wire 1 M count [1] $end
$var wire 1 N count [0] $end
$upscope $end
$upscope $end
$enddefinitions $end
#0
$dumpvars
1!
1"
0#
0$
1%
x&
1'
1(
1)
0*
1+
1,
1-
1.
0/
00
11
12
03
04
05
06
07
08
09
0:
0;
0<
0=
1>
0?
1@
1A
0B
0C
1D
0E
0F
0N
0M
0L
0K
0J
0I
0H
0G
$end
#10000
0!
0"
0+
0.
0,
#20000
1!
1+
1,
1E
1L
1M
1/
02
0@
1?
0A
0>
01
1F
1A
12
1#
#30000
0!
0+
0,
#40000
1!
1+
1,
1N
10
0-
11
0?
02
#50000
0!
0+
0,
#60000
1!
1+
1,
0N
0M
0/
00
1-
1>
13
01
03
11
1@
1?
12
0@
02
0A
1A
#70000
0!
0+
0,
#80000
1!
1+
1,
1N
10
0-
1B
13
01
0?
1@
12
0A
#90000
0!
0+
0,
1C
0B
0F
0#
#100000
1!
1+
1,
0L
0N
1M
1/
14
0@
1A
1B
0D
00
1-
0>
03
11
15
01
04
1@
1?
02
1D
05
12
0A
#110000
0!
0+
0,
#120000
1!
1+
1,
1N
10
0-
11
0?
02
#130000
0!
0+
0,
#140000
1!
1+
1,
0N
0M
0/
00
1-
1>
13
01
03
11
14
0@
12
1A
0D
04
1@
15
05
#150000
0!
0+
0,
#160000
1!
1+
1,
0E
1L
1M
1/
02
0@
1?
0A
0>
01
1F
1A
12
1#
#170000
0!
0+
0,
#180000
1!
1+
1,
1N
10
0-
11
0?
02
#190000
0!
0+
0,
#200000
1!
1+
1,
0N
0M
0/
00
1-
1>
13
01
03
11
1@
1?
12
0@
02
0A
1A
#210000
0!
0+
0,
#220000
1!
1+
1,
1N
10
0-
0B
13
01
0?
1@
12
0A
#230000
0!
0+
0,
0C
1B
0F
0#
#240000
1!
1+
1,
0L
0N
1M
1/
14
0@
1A
0B
1D
00
1-
0>
03
11
15
01
04
1@
1?
02
0D
05
12
0A
#250000
0!
0+
0,
#260000
1!
1+
1,
1N
10
0-
11
0?
02
#270000
0!
0+
0,
#280000
1!
1+
1,
0N
0M
0/
00
1-
1>
13
01
03
11
14
0@
12
1A
1D
04
1@
15
05
#290000
0!
0+
0,
#300000
1!
1+
1,
1E
1L
1M
1/
02
0@
1?
0A
0>
01
1F
1A
12
1#
#310000
0!
0+
0,
#320000
1!
1+
1,
1N
10
0-
11
0?
02
#330000
0!
0+
0,
#340000
1!
1+
1,
0N
0M
0/
00
1-
1>
13
01
03
11
1@
1?
12
0@
02
0A
1A
#350000
0!
0+
0,
#360000
1!
1+
1,
1N
10
0-
1B
13
01
0?
1@
12
0A
#370000
0!
0+
0,
1C
0B
0F
0#
#380000
1!
1+
1,
0L
0N
1M
1/
14
0@
1A
1B
0D
00
1-
0>
03
11
15
01
04
1@
1?
02
1D
05
12
0A
#390000
0!
0+
0,
#400000
1!
1+
1,
1N
10
0-
11
0?
02
#410000
0!
0+
0,
#420000
1!
1+
1,
0N
0M
0/
00
1-
1>
13
01
03
11
14
0@
12
1A
0D
04
1@
15
05
#430000
0!
0+
0,
#440000
1!
1+
1,
0E
1L
1M
1/
02
0@
1?
0A
0>
01
1F
1A
12
1#
#450000
0!
0+
0,
#460000
1!
1+
1,
1N
10
0-
11
0?
02
#470000
0!
0+
0,
#480000
1!
1+
1,
0N
0M
0/
00
1-
1>
13
01
03
11
1@
1?
12
0@
02
0A
1A
#490000
0!
0+
0,
#500000
1!
1+
1,
1N
10
0-
0B
13
01
0?
1@
12
0A
#510000
0!
0+
0,
0C
1B
0F
0#
#520000
1!
1+
1,
0L
0N
1M
1/
14
0@
1A
0B
1D
00
1-
0>
03
11
15
01
04
1@
1?
02
0D
05
12
0A
#530000
0!
0+
0,
#540000
1!
1+
1,
1N
10
0-
11
0?
02
#550000
0!
0+
0,
#560000
1!
1+
1,
0N
0M
0/
00
1-
1>
13
01
03
11
14
0@
12
1A
1D
04
1@
15
05
#570000
0!
0+
0,
#580000
1!
1+
1,
1E
1L
1M
1/
02
0@
1?
0A
0>
01
1F
1A
12
1#
#590000
0!
0+
0,
#600000
1!
1+
1,
1N
10
0-
11
0?
02
#610000
0!
0+
0,
#620000
1!
1+
1,
0N
0M
0/
00
1-
1>
13
01
03
11
1@
1?
12
0@
02
0A
1A
#630000
0!
0+
0,
#640000
1!
1+
1,
1N
10
0-
1B
13
01
0?
1@
12
0A
#650000
0!
0+
0,
1C
0B
0F
0#
#660000
1!
1+
1,
0L
0N
1M
1/
14
0@
1A
1B
0D
00
1-
0>
03
11
15
01
04
1@
1?
02
1D
05
12
0A
#670000
0!
0+
0,
#680000
1!
1+
1,
1N
10
0-
11
0?
02
#690000
0!
0+
0,
#700000
1!
1+
1,
0N
0M
0/
00
1-
1>
13
01
03
11
14
0@
12
1A
0D
04
1@
15
05
#710000
0!
0+
0,
#720000
1!
1+
1,
0E
1L
1M
1/
02
0@
1?
0A
0>
01
1F
1A
12
1#
#730000
0!
0+
0,
#740000
1!
1+
1,
1N
10
0-
11
0?
02
#750000
0!
0+
0,
#760000
1!
1+
1,
0N
0M
0/
00
1-
1>
13
01
03
11
1@
1?
12
0@
02
0A
1A
#770000
0!
0+
0,
#780000
1!
1+
1,
1N
10
0-
0B
13
01
0?
1@
12
0A
#790000
0!
0+
0,
0C
1B
0F
0#
#800000
1!
1+
1,
0L
0N
1M
1/
14
0@
1A
0B
1D
00
1-
0>
03
11
15
01
04
1@
1?
02
0D
05
12
0A
#810000
0!
0+
0,
#820000
1!
1+
1,
1N
10
0-
11
0?
02
#830000
0!
0+
0,
#840000
1!
1+
1,
0N
0M
0/
00
1-
1>
13
01
03
11
14
0@
12
1A
1D
04
1@
15
05
#850000
0!
0+
0,
#860000
1!
1+
1,
1E
1L
1M
1/
02
0@
1?
0A
0>
01
1F
1A
12
1#
#870000
0!
0+
0,
#880000
1!
1+
1,
1N
10
0-
11
0?
02
#890000
0!
0+
0,
#900000
1!
1+
1,
0N
0M
0/
00
1-
1>
13
01
03
11
1@
1?
12
0@
02
0A
1A
#910000
0!
0+
0,
#920000
1!
1+
1,
1N
10
0-
1B
13
01
0?
1@
12
0A
#930000
0!
0+
0,
1C
0B
0F
0#
#940000
1!
1+
1,
0L
0N
1M
1/
14
0@
1A
1B
0D
00
1-
0>
03
11
15
01
04
1@
1?
02
1D
05
12
0A
#950000
0!
0+
0,
#960000
1!
1+
1,
1N
10
0-
11
0?
02
#970000
0!
0+
0,
#980000
1!
1+
1,
0N
0M
0/
00
1-
1>
13
01
03
11
14
0@
12
1A
0D
04
1@
15
05
